{
  "type": "service_account",
  "project_id": "test-db-39713",
  "private_key_id": "f1208e20d62489ef543e69e1bca0a22dce37bc9e",
  "private_key": "-----BEGIN PRIVATE KEY-----\nMIIEvAIBADANBgkqhkiG9w0BAQEFAASCBKYwggSiAgEAAoIBAQCwKG6ZyVVxSAjN\nwLyVbG4kPPfNIQu27gSaUi6DiqYeGuqoyAWwqEjQuUt2d1xI1hexbiALgZb9BXGz\n7D7xKlWb8wAnItCY7N337Lns5aMSZ9nlDquY0rXh00/yJ+cZhE2seCyJ3l8V7Vnf\ni1nSsRIOGWQDfYI42z36mtTTEFs4keWVVAFjujXg3ryEdp2aB8zL8gLWpFQXp9Ue\nhGF5Dldgoiht5LLLstJT89LwJ+aJZHP+KbOFiQOHd6MGK7G+2S9AtnkxV9kkOjCU\nIxMy8W1Z+8aGaiE4S4ijg1ekCGoxkzxhNEoDlQpe2WPFo7dnPm9hgke6KDkr+iL6\n6/5KHfXHAgMBAAECggEAVdt+/Il6kXnwgIf94j40+IiWpm4Czaf4qlZ/wTEkgevQ\nj27eBxoeU0zckOLgIcfnSF1KVRFWTAAJSQ5OJzDhBN9NJcX8MWzRSvMgM2xBLMld\nFB0wWY3phCWAA6CbLH6ldPgljRTK9171vNSodN5E1IZfjqvvelKxRKGONUj1jP4O\n0867WOY5cbLeR97INvEHzn9v7ImaYuk2Fc/8A+QJFiVFI4/Rgy0F6Cgn20nn3W0r\nrA+B+iljZYZJPWBJxOddY+AY4pYcA0IHUpDAgN8GH7a6gjUUjDRKPjEokKdbMejK\ngITSdDu/8dI86Zh8H4xg7vg46mfVFRxHq2HXmBb1kQKBgQDstLIu9StNAvX0bxFM\nizoLp54y7KabqN+mBwP9zxQ9hHIJ+KKfejL5+88MdXAKwhnm2jI1kdxzTU2BichA\nFp/OK+77nK9m/gh8KIaWClZT6xdMyQQsZmplN+FqGJKvaBvB147XRfX2K+jn2ZFe\nenHC+I9yTEkU6wK+PbZl9bnsjQKBgQC+hErStRLPWWUF3qHLJ0ELofgbSGfwBHLO\nI8+vuQs6bgBbrq66USytfTwAVSn9/WWhsiaqSnXgNHHazOwVHKJRru9M9YeU34mq\n5PNbmMfstMnRRFmj1K2Fbynpjhba2dk4dJbrB8EPHwej4khiMISqx7wxC9T7uYrC\nJKH5xVO4owKBgCdtIZC4vXGiYJ1KMrNxLUXrsWoCCO48fqQE3yFTcKeee/A1PcEa\ndYs16hLFLNhd5DqTdXF+zh1WbuZ4sKYcHpoUr0Wxn3WkMn2bsm8jYaWwrrzXbp6G\noIojeKRXW3dj+9uZr+0jdgh+39heYNw/wNsc06fSFQoq6tYNKWhqOYGxAoGARVmC\noxCmuDOiQnC4FGtFkiZzWfsRWp1D7SW8BAsnuy0vlDASCmBiEwTzQmu9zWbgB+wB\nhxtzrRlqGGtfxI+XxoQXN7xojhiQ1FRjAYSrwc5NaI+o0aopP9knOI0wZJnIKHTI\nOuWnsQlqjo1gK93dbQ0nw/K6pKb1i5YqH/FkeGECgYAQASaqm47KMPUvPhiFvelp\nom/MF7ozAIE9u9/5R/vsvUGOFQ47pLkfMUFq7wZ2TfX3vFjrnCG5YTLIwN7yBRiu\nJHeRn6qjwVILwOFgrjthWTLU/2jK28gViloT1LZ/H5NhmLmU3r1IbEHzPcCiXec6\nHUKn+WbO4tDO3xtJo2RI5g==\n-----END PRIVATE KEY-----\n",
  "client_email": "firebase-adminsdk-apuoe@test-db-39713.iam.gserviceaccount.com",
  "client_id": "113650049034531615244",
  "auth_uri": "https://accounts.google.com/o/oauth2/auth",
  "token_uri": "https://oauth2.googleapis.com/token",
  "auth_provider_x509_cert_url": "https://www.googleapis.com/oauth2/v1/certs",
  "client_x509_cert_url": "https://www.googleapis.com/robot/v1/metadata/x509/firebase-adminsdk-apuoe%40test-db-39713.iam.gserviceaccount.com"
}
